{
    "inputMessageMetadata": {
        "messagePayload": {
            "connectorName": "#_custom_mule_metadata_type_#",
            "typeId": "CDKOut"
        }
    },
    "outputMessageMetadata": {
        "messagePayload": {
            "connectorName": "#_custom_mule_metadata_type_#",
            "typeId": "hashList"
        }
    },
    "id": "08147315-4a86-48d3-af0e-02aa4e6e34a2",
    "version": "5.2.0.0"
}