{
    "inputMessageMetadata": {},
    "outputMessageMetadata": {
        "messagePayload": {
            "connectorName": "#_custom_mule_metadata_type_#",
            "typeId": "coupareqSingle"
        }
    },
    "id": "0e7a574c-eadd-42aa-b6e3-9fc7546bf167",
    "version": "5.2.0.0"
}