{
    "inputMessageMetadata": {
        "messagePayload": {
            "connectorName": "#_custom_mule_metadata_type_#",
            "typeId": "xmlOut"
        }
    },
    "outputMessageMetadata": {},
    "id": "673e22b0-a3d7-4a71-8a56-5c9f14f041c5",
    "version": "5.2.0.0"
}