{
    "inputMessageMetadata": {
        "messagePayload": {
            "connectorName": "#_custom_mule_metadata_type_#",
            "typeId": "hashList"
        }
    },
    "outputMessageMetadata": {
        "messagePayload": {
            "connectorName": "#_custom_mule_metadata_type_#",
            "typeId": "CoupaRequisitionReq"
        }
    },
    "id": "c7aac8bb-d3d6-4e8e-980e-12b54c74ab18",
    "version": "5.2.0.0"
}